{
  "page": 1,
  "total_results": 112,
  "total_pages": 6,
  "results": [
    {
      "popularity": 65.056,
      "vote_count": 6993,
      "video": false,
      "poster_path": "\/AtsgWhDnHTq68L0lLsUrCnM7TjG.jpg",
      "id": 299537,
      "adult": false,
      "backdrop_path": "\/nBS1vONGYrsL2C68C2oDQ3eKJR1.jpg",
      "original_language": "en",
      "original_title": "Captain Marvel",
      "genre_ids": [
        28,
        12,
        878
      ],
      "title": "Captain Marvel",
      "vote_average": 7,
      "overview": "The story follows Carol Danvers as she becomes one of the universe’s most powerful heroes when Earth is caught in the middle of a galactic war between two alien races. Set in the 1990s, Captain Marvel is an all-new adventure from a previously unseen period in the history of the Marvel Cinematic Universe.",
      "release_date": "2019-03-08"
    },
    {
      "popularity": 9.236,
      "vote_count": 217,
      "video": false,
      "poster_path": "\/i8i7xHztK5fb4ZXQ6BhOEwmnpQj.jpg",
      "id": 119569,
      "adult": false,
      "backdrop_path": "\/lfyIXwFQUUO52BmhbLWuPxWu9gD.jpg",
      "original_language": "en",
      "original_title": "Marvel One-Shot: Item 47",
      "genre_ids": [
        28,
        14,
        878
      ],
      "title": "Marvel One-Shot: Item 47",
      "vote_average": 6.6,
      "overview": "Benny and Claire, a down on their luck couple find a discarded Chitauri gun, referred to as 'Item 47'...",
      "release_date": "2012-09-25"
    },
    {
      "popularity": 10.019,
      "vote_count": 357,
      "video": false,
      "poster_path": "\/eiw4sh6ieAVuJq6E1bSHQkZPfwm.jpg",
      "id": 211387,
      "adult": false,
      "backdrop_path": "\/jpMVir4cCQJbtmruzpNd12yJj7Y.jpg",
      "original_language": "en",
      "original_title": "Marvel One-Shot: Agent Carter",
      "genre_ids": [
        28,
        12,
        14,
        878
      ],
      "title": "Marvel One-Shot: Agent Carter",
      "vote_average": 7.5,
      "overview": "The film takes place one year after the events of Captain America: The First Avenger, in which Agent Carter, a member of the Strategic Scientific Reserve, is in search of the mysterious Zodiac.",
      "release_date": "2013-09-23"
    },
    {
      "popularity": 9.887,
      "vote_count": 214,
      "video": false,
      "poster_path": "\/75AsB4NRKaYanuCeKYgIh2hfsR1.jpg",
      "id": 76122,
      "adult": false,
      "backdrop_path": "\/tHthULHaBaWLS1z2UfYhvHphJSb.jpg",
      "original_language": "en",
      "original_title": "Marvel One-Shot: The Consultant",
      "genre_ids": [
        28,
        12,
        14,
        878
      ],
      "title": "Marvel One-Shot: The Consultant",
      "vote_average": 6.5,
      "overview": "Agent Coulson informs Agent Sitwell that the World Security Council wishes Emil Blonsky to be released from prison to join the Avengers Initiative. As Nick Fury doesn't want to release Blonsky, the two agents decide to send a patsy to sabotage the meeting...",
      "release_date": "2011-09-13"
    },
    {
      "popularity": 5.181,
      "id": 284019,
      "video": false,
      "vote_count": 51,
      "vote_average": 6.2,
      "title": "Phineas and Ferb: Mission Marvel",
      "release_date": "2013-10-01",
      "original_language": "en",
      "original_title": "Phineas and Ferb: Mission Marvel",
      "genre_ids": [
        28,
        12,
        878
      ],
      "backdrop_path": "\/omSsI9gwA2zkILdOtdYT6XyaKxn.jpg",
      "adult": false,
      "overview": "When Dr. Doofenshmirtz's latest invention causes the Marvel heroes to lose their powers, they team up with Phineas and Ferb to save the world from Doofenshmirtz and the Marvel villains.",
      "poster_path": "\/uEqgmBUqFdWbCgB5Yby6Nv5681p.jpg"
    },
    {
      "popularity": 7.889,
      "vote_count": 206,
      "video": false,
      "poster_path": "\/iVtM6mybR5kq3aE4opGnm9EIffF.jpg",
      "id": 253980,
      "adult": false,
      "backdrop_path": "\/rprTrfEdeu86szhwGZ8KEjJ5KJW.jpg",
      "original_language": "en",
      "original_title": "Marvel One-Shot: All Hail the King",
      "genre_ids": [
        28,
        35,
        18,
        14,
        53
      ],
      "title": "Marvel One-Shot: All Hail the King",
      "vote_average": 7,
      "overview": "A documentary filmmaker interviews the now-famous Trevor Slattery from behind bars.",
      "release_date": "2014-02-04"
    },
    {
      "popularity": 6.071,
      "id": 259910,
      "video": false,
      "vote_count": 62,
      "vote_average": 6.5,
      "title": "Marvel Studios: Assembling a Universe",
      "release_date": "2014-03-18",
      "original_language": "en",
      "original_title": "Marvel Studios: Assembling a Universe",
      "genre_ids": [
        10770,
        99
      ],
      "backdrop_path": "\/adto5SCBYcr7trKjmhzRCMJmZZW.jpg",
      "adult": false,
      "overview": "A look at the story behind Marvel Studios and the Marvel Cinematic Universe, featuring interviews and behind-the-scenes footage from all of the Marvel films, the Marvel One-Shots and \"Marvel's Agents of S.H.I.E.L.D.\"",
      "poster_path": "\/5LLBKBH4udb0wJveefs1acQ2pW9.jpg"
    },
    {
      "popularity": 5.01,
      "id": 491633,
      "video": false,
      "vote_count": 21,
      "vote_average": 6,
      "title": "Marvel Rising: Secret Warriors",
      "release_date": "2018-09-30",
      "original_language": "en",
      "original_title": "Marvel Rising: Secret Warriors",
      "genre_ids": [
        16,
        28,
        35,
        878,
        10770
      ],
      "backdrop_path": "\/95AKEQdhAF7YlH6XJSOFaqNTW0J.jpg",
      "adult": false,
      "overview": "When a threat no one could have expected bears down on the Marvel Universe, this ragtag, untrained band of teens have no choice but to rise together and prove to the world that sometimes the difference between a 'hero' and 'misfit' is just in the name.",
      "poster_path": "\/rXmc4jvDBU04Wp8r5JMWy3HbhB3.jpg"
    },
    {
      "popularity": 10.436,
      "vote_count": 163,
      "video": false,
      "poster_path": "\/5uGaqAnt0RQ87uKy8UlRDNrL2jY.jpg",
      "id": 76535,
      "adult": false,
      "backdrop_path": "\/wdMq7F5Cr1DGg8ioNPZvWxqQer4.jpg",
      "original_language": "en",
      "original_title": "Marvel One-Shot: A Funny Thing Happened on the Way to Thor's Hammer",
      "genre_ids": [
        14,
        878
      ],
      "title": "Marvel One-Shot: A Funny Thing Happened on the Way to Thor's Hammer",
      "vote_average": 7.2,
      "overview": "Agent Coulson stops at a convenience store and deals with a coincidental robbery during his visit.",
      "release_date": "2011-10-25"
    },
    {
      "popularity": 6.223,
      "vote_count": 63,
      "video": false,
      "poster_path": "\/kZgXXEzgldKseNBezbXa03kXNzG.jpg",
      "id": 253617,
      "adult": false,
      "backdrop_path": "\/k39ctNu53NMJIPl2Qaivd7sQFLL.jpg",
      "original_language": "en",
      "original_title": "LEGO Marvel Super Heroes: Maximum Overload",
      "genre_ids": [
        28,
        16,
        35,
        10751
      ],
      "title": "LEGO Marvel Super Heroes: Maximum Overload",
      "vote_average": 6.3,
      "overview": "Villainous Loki is amassing an army to conquer Earth! His antics are keeping Spider-Man and S.H.I.E.L.D. busy as they tackle a host of bad guys.",
      "release_date": "2013-11-05"
    },
    {
      "popularity": 1.567,
      "id": 609681,
      "video": false,
      "vote_count": 0,
      "vote_average": 0,
      "title": "Captain Marvel 2",
      "release_date": "",
      "original_language": "en",
      "original_title": "Captain Marvel 2",
      "genre_ids": [
        28,
        12,
        878,
        35
      ],
      "backdrop_path": "\/iGtSJbDku0riOw1joO1qD4pGwdm.jpg",
      "adult": false,
      "overview": "Upcoming sequel to Captain Marvel (2019).",
      "poster_path": "\/3BINA6kL4YvsTV66uBLqn64Glb1.jpg"
    },
    {
      "popularity": 5.627,
      "vote_count": 31,
      "video": false,
      "poster_path": "\/g716rAncfsYzny2eZoxX8txjdRw.jpg",
      "id": 299969,
      "adult": false,
      "backdrop_path": "\/7kKsMO1meOBTfat6eBjJjNayslA.jpg",
      "original_language": "en",
      "original_title": "Marvel: 75 Years, From Pulp to Pop!",
      "genre_ids": [
        99
      ],
      "title": "Marvel: 75 Years, From Pulp to Pop!",
      "vote_average": 7.1,
      "overview": "In celebration of the publisher's 75th anniversary, the hour-long special will take a detailed look at the company's journey from fledgling comics publisher to multi-media juggernaut. Hosted by Emily VanCamp (S.H.I.E.L.D. Agent Sharon Carter), the documentary-style feature will include interviews with comic book icons, pop culture authorities, and Hollywood stars.  The special also promises an \"extraordinary peek into Marvel's future!\" Might Marvel release the first official footage from next year's Avengers: Age of Ultron or Ant-Man? If they do, you'll know about it here.",
      "release_date": "2014-11-04"
    },
    {
      "popularity": 1.73,
      "id": 61020,
      "video": false,
      "vote_count": 11,
      "vote_average": 6.1,
      "title": "Adventures of Captain Marvel",
      "release_date": "1941-03-28",
      "original_language": "en",
      "original_title": "Adventures of Captain Marvel",
      "genre_ids": [
        14,
        28,
        878,
        10751
      ],
      "backdrop_path": "\/dkWcUCrXFTotX4VoIguEVC511dh.jpg",
      "adult": false,
      "overview": "On a scientific expedition to Siam young Billy Batson is given the ability to change himself into the super-powered Captain Marvel by the wizard Shazam, who tells him his powers will last only as long as the Golden Scorpion idol is threatened. Finding the idol, the scientists realize it could be the most powerful weapon in the world and remove the lenses that energize it, distributing them among themselves so that no one would be able to use the idol by himself. Back in the US, Billy Batson, as Captain Marvel, wages a battle against an evil, hooded figure, the Scorpion, who hopes to accumulate all five lenses, thereby gaining control of the super-powerful weapon",
      "poster_path": "\/8lw00AKUPzDfQ78MzZQLCMcaVAb.jpg"
    },
    {
      "popularity": 2.981,
      "id": 368304,
      "video": false,
      "vote_count": 30,
      "vote_average": 6.3,
      "title": "LEGO Marvel Super Heroes: Avengers Reassembled!",
      "release_date": "2015-11-16",
      "original_language": "en",
      "original_title": "LEGO Marvel Super Heroes: Avengers Reassembled!",
      "genre_ids": [
        16
      ],
      "backdrop_path": "\/7QNGBStqOLNtKrczEmbjfuCHKjo.jpg",
      "adult": false,
      "overview": "In \"LEGO Marvel Super Heroes: Avengers Reassembled!,\" the Avengers prepare for a party at Stark Tower and notice that Iron Man is acting strange. After some investigation, they discover that the evil Ultron has taken control of Iron Man and his armor as part of his scheme to take over the world. It's up to Captain America, the Hulk, Thor, Vision, Black Widow, Hawkeye and their friends (Spider-Man, Iron Spider, and special guest star Ant-Man) to rescue Iron Man from Ultron's clutches and defeat the super villain before he causes even more destruction and chaos.",
      "poster_path": "\/pPdB6N9iJjn9GwrNkhMS1FKgx22.jpg"
    },
    {
      "popularity": 47.547,
      "vote_count": 20366,
      "video": false,
      "poster_path": "\/cezWGskPY5x7GaglTTRN4Fugfb8.jpg",
      "id": 24428,
      "adult": false,
      "backdrop_path": "\/hbn46fQaRmlpBuUrEiFqv0GDL6Y.jpg",
      "original_language": "en",
      "original_title": "The Avengers",
      "genre_ids": [
        28,
        12,
        878
      ],
      "title": "The Avengers",
      "vote_average": 7.6,
      "overview": "When an unexpected enemy emerges and threatens global safety and security, Nick Fury, director of the international peacekeeping agency known as S.H.I.E.L.D., finds himself in need of a team to pull the world back from the brink of disaster. Spanning the globe, a daring recruitment effort begins!",
      "release_date": "2012-05-04"
    },
    {
      "popularity": 3.879,
      "id": 474227,
      "video": false,
      "vote_count": 71,
      "vote_average": 5,
      "title": "Inhumans: The First Chapter",
      "release_date": "2017-09-01",
      "original_language": "en",
      "original_title": "Inhumans: The First Chapter",
      "genre_ids": [
        878,
        28,
        12,
        10770
      ],
      "backdrop_path": "\/zJ4xmyVLYU9Lu3yfYiJNFiLL51D.jpg",
      "adult": false,
      "overview": "After the Royal Family of Inhumans is splintered by a military coup, they barely escape to Hawaii where their surprising interactions with the lush world and humanity around them may prove to not only save them, but Earth itself.",
      "poster_path": "\/p1f444t4JGF0t8HnRJAcS8xndxF.jpg"
    },
    {
      "popularity": 51.979,
      "vote_count": 3120,
      "video": false,
      "poster_path": "\/xnopI5Xtky18MPhK40cZAGAOVeV.jpg",
      "id": 287947,
      "adult": false,
      "backdrop_path": "\/OIGX2lm5tmlCKvZUghtwHzoxxO.jpg",
      "original_language": "en",
      "original_title": "Shazam!",
      "genre_ids": [
        28,
        35,
        14
      ],
      "title": "Shazam!",
      "vote_average": 7,
      "overview": "A boy is given the ability to become an adult superhero in times of need with a single magic word.",
      "release_date": "2019-03-23"
    },
    {
      "popularity": 3.034,
      "id": 295144,
      "video": false,
      "vote_count": 50,
      "vote_average": 7.3,
      "title": "Marvellous",
      "release_date": "2015-02-19",
      "original_language": "en",
      "original_title": "Marvellous",
      "genre_ids": [
        18,
        10770
      ],
      "backdrop_path": "\/hXaLRcECttjPJIlPzEkGXyF6pVv.jpg",
      "adult": false,
      "overview": "Dramatisation of the true story of the life of Neil \"Nello\" Baldwin.  Born with a mild learning disability but without the burden of social embarrassment &amp; how his inexhaustible ability to see the good in any situation overcame any stigma society tried to label him with.",
      "poster_path": "\/2N9By7kKC6ea0rYDMSQwzffhary.jpg"
    },
    {
      "popularity": 2.639,
      "id": 583209,
      "video": false,
      "vote_count": 6,
      "vote_average": 6.3,
      "title": "Marvel Rising: Heart of Iron",
      "release_date": "2019-04-03",
      "original_language": "en",
      "original_title": "Marvel Rising: Heart of Iron",
      "genre_ids": [
        16,
        878,
        28
      ],
      "backdrop_path": "\/5Z2uAUDQkLzewZ6CpWDPn4q9990.jpg",
      "adult": false,
      "overview": "Ironheart, AKA Riri Williams (voiced by Sofia Wylie), who is having difficulty adjusting to college life as the youngest student there then the college's engineering lab is demolished by an alien and kidnaps her best friend. Inspired by Iron Man, she develops a plan to save her friend. The special will also feature appearances by Iron Man (voiced by Mick Wingert) and a new character named A.M.I. (voiced by Melanie Minichino).",
      "poster_path": "\/z3lD286jY8iYasC5hJZ2kgZF9uY.jpg"
    },
    {
      "popularity": 2.472,
      "id": 528222,
      "video": false,
      "vote_count": 12,
      "vote_average": 5.7,
      "title": "LEGO Marvel Super Heroes: Black Panther - Trouble in Wakanda",
      "release_date": "2018-06-04",
      "original_language": "en",
      "original_title": "LEGO Marvel Super Heroes: Black Panther - Trouble in Wakanda",
      "genre_ids": [
        16,
        14,
        10751
      ],
      "backdrop_path": "\/96ANeIgnKUqrBNlG2ZdesuOsony.jpg",
      "adult": false,
      "overview": "After speaking at the Wakanda Embassy, Black Panther fights Thanos and fends him off with the help of fellow Avengers Captain America, Thor, Iron Man, Hulk, and Black Widow. After regaining conscious, Thanos is approached by Erik Killmonger and Ulysses Klaue in a plot where they will obtain the Vibranium in Wakanda to empower Thanos. When Black Panther discovers this plot, he must work with Shuri, Okoye, and the Avengers to defeat them.",
      "poster_path": "\/2t6V87sYjESrtBj9flbHWhZKtAp.jpg"
    }
  ]
}